R for the Rest of Us: A Statistics-Free Introduction - 11 Automatically Accesing Online Data
…
Working with Decennial Census Data

The tidycensus packages includes several functions dedicated to specific Census Bureau datasets, such as get_decennial() for Decennial Census data. To access data from the 2020 Decennial Census about the Asian population in each state, use the get_decennial() function with three arguments as follows:

get_decennial(
  geography = "state",
  variables = "P1_006N",
  year = 2020
)

Setting the geography argument to “state” tells get_decennial() to access data at the state level. In addition to the 50 states, it will return data for the District of Columbia and Puerto Rico. The variables argument specifies the variable or variables you want to access. Here, P1_006N is the variable name for the total Asian population. I’ll discuss how to identify other variables you may want to use in the next section. Finally, year specifies the year for which you want to access data — in this case, 2020.

Running this code returns the following:

# A tibble: 52 × 4
   GEOID NAME                 variable   value
   <chr> <chr>                <chr>      <dbl>
 1 42    Pennsylvania         P1_006N   510501
 2 06    California           P1_006N  6085947
 3 54    West Virginia        P1_006N    15109
 4 49    Utah                 P1_006N    80438
 5 36    New York             P1_006N  1933127
 6 11    District of Columbia P1_006N    33545
 7 02    Alaska               P1_006N    44032
 8 12    Florida              P1_006N   643682
 9 45    South Carolina       P1_006N    90466
10 38    North Dakota         P1_006N    13213
# ℹ 42 more rows
…
Identifying Census Variable Values

You’ve just seen how to retrieve the total number of Asian residents of each state, but say you want to calculate that number instead as a percentage of all the state’s residents. To do that, first you need to retrieve the variable for the state’s total population.

The tidycensus package has a function called load_variables() that shows all of the variables from a Decennial Census. Run it with the year argument set to 2020 and dataset set to pl as follows:

load_variables(
  year = 2020,
  dataset = "pl"
)

Running this code pulls data from so-called redistricting summary data files (which Public Law 94-171 requires the Census Bureau to produce every 10 years) and returns the name, label (description), and concept (category) of all available variables:

# A tibble: 301 × 3
   name    label                                                         concept
   <chr>   <chr>                                                         <chr>  
 1 H1_001N " !!Total:"                                                   OCCUPA…
 2 H1_002N " !!Total:!!Occupied"                                         OCCUPA…
 3 H1_003N " !!Total:!!Vacant"                                           OCCUPA…
 4 P1_001N " !!Total:"                                                   RACE   
 5 P1_002N " !!Total:!!Population of one race:"                          RACE   
 6 P1_003N " !!Total:!!Population of one race:!!White alone"             RACE   
 7 P1_004N " !!Total:!!Population of one race:!!Black or African Americ… RACE   
 8 P1_005N " !!Total:!!Population of one race:!!American Indian and Ala… RACE   
 9 P1_006N " !!Total:!!Population of one race:!!Asian alone"             RACE   
10 P1_007N " !!Total:!!Population of one race:!!Native Hawaiian and Oth… RACE   
# ℹ 291 more rows
…
Using Multiple Census Variables

Now that you know which variables you need, you can use the get_decennial() function again with two variables at once:

get_decennial(
  geography = "state",
  variables = c("P1_001N", "P1_006N"),
  year = 2020
) %>%
  arrange(NAME)

Adding arrange(NAME) after get_decennial() sorts the results by state name, allowing you to easily see that the output includes both variables for each state:

# A tibble: 104 × 4
   GEOID NAME       variable    value
   <chr> <chr>      <chr>       <dbl>
 1 01    Alabama    P1_001N   5024279
 2 01    Alabama    P1_006N     76660
 3 02    Alaska     P1_001N    733391
 4 02    Alaska     P1_006N     44032
 5 04    Arizona    P1_001N   7151502
 6 04    Arizona    P1_006N    257430
 7 05    Arkansas   P1_001N   3011524
 8 05    Arkansas   P1_006N     51839
 9 06    California P1_001N  39538223
10 06    California P1_006N   6085947
# ℹ 94 more rows
…
get_decennial(
  geography = "state",
  variables = c(
    total_population = "P1_001N",
    asian_population = "P1_006N"
  ),
  year = 2020
) %>%
  arrange(NAME)

Within the variables argument, this code specifies the new names for the variables, followed by the equal sign and the original variable names. The c() function allows you to rename multiple variables at one time.

Now it’s much easier to see which variables you’re working with:

# A tibble: 104 × 4
   GEOID NAME       variable            value
   <chr> <chr>      <chr>               <dbl>
 1 01    Alabama    total_population  5024279
 2 01    Alabama    asian_population    76660
 3 02    Alaska     total_population   733391
 4 02    Alaska     asian_population    44032
 5 04    Arizona    total_population  7151502
 6 04    Arizona    asian_population   257430
 7 05    Arkansas   total_population  3011524
 8 05    Arkansas   asian_population    51839
 9 06    California total_population 39538223
10 06    California asian_population  6085947
# ℹ 94 more rows
…
The group_by(NAME) function creates one group for each state because you want to calculate the Asian population percentage in each state (not for the entire United States). Then mutate() calculates each percentage, taking the value in each row and dividing it by the total_population and asian_population rows for each state. The ungroup() function removes the state-level grouping, and filter() shows only the Asian population percentage.

When you run this code, you should see both the total Asian population and the Asian population as a percentage of the total population in each state:

# A tibble: 52 × 5
   GEOID NAME                 variable           value    pct
   <chr> <chr>                <chr>              <dbl>  <dbl>
 1 01    Alabama              asian_population   76660 0.0150
 2 02    Alaska               asian_population   44032 0.0566
 3 04    Arizona              asian_population  257430 0.0347
 4 05    Arkansas             asian_population   51839 0.0169
 5 06    California           asian_population 6085947 0.133 
 6 08    Colorado             asian_population  199827 0.0335
 7 09    Connecticut          asian_population  172455 0.0456
 8 10    Delaware             asian_population   42699 0.0413
 9 11    District of Columbia asian_population   33545 0.0464
10 12    Florida              asian_population  643682 0.0290
# ℹ 42 more rows
…
Using a Summary Variable

Kyle Walker knew that calculating summaries like you’ve just done would be a common use case for tidycensus. To calculate, say, the Asian population as a percentage of the whole, you need to have a numerator (the Asian population) and denominator (the total population). So, to simplify things, Walker included the summary_var argument, which can be used within get_decennial() to import the total population as a separate variable. Instead of putting P1_001N (total population) in the variables argument and renaming it, you can assign it to the summary_var argument as follows:

get_decennial(
  geography = "state",
  variables = c(asian_population = "P1_006N"),
  summary_var = "P1_001N",
  year = 2020
) %>%
  arrange(NAME)

This returns a nearly identical data frame to what you just got, except that the total population is now a separate variable, rather than additional rows for each state:

# A tibble: 52 × 5
   GEOID NAME                 variable           value summary_value
   <chr> <chr>                <chr>              <dbl>         <dbl>
 1 01    Alabama              asian_population   76660       5024279
 2 02    Alaska               asian_population   44032        733391
 3 04    Arizona              asian_population  257430       7151502
 4 05    Arkansas             asian_population   51839       3011524
 5 06    California           asian_population 6085947      39538223
 6 08    Colorado             asian_population  199827       5773714
 7 09    Connecticut          asian_population  172455       3605944
 8 10    Delaware             asian_population   42699        989948
 9 11    District of Columbia asian_population   33545        689545
10 12    Florida              asian_population  643682      21538187
# ℹ 42 more rows
With the data in this new format, now you can calculate the Asian population as a percentage of the whole by dividing the value variable by the summary_value variable. Then you drop the summary_value variable because you no longer need it after doing this calculation:

get_decennial(
  geography = "state",
  variables = c(asian_population = "P1_006N"),
  summary_var = "P1_001N",
  year = 2020
) %>%
  arrange(NAME) %>%
  mutate(pct = value / summary_value) %>%
  select(-summary_value)

The resulting output is identical to the output of the previous section:

# A tibble: 52 × 5
   GEOID NAME                 variable           value    pct
   <chr> <chr>                <chr>              <dbl>  <dbl>
 1 01    Alabama              asian_population   76660 0.0153
 2 02    Alaska               asian_population   44032 0.0600
 3 04    Arizona              asian_population  257430 0.0360
 4 05    Arkansas             asian_population   51839 0.0172
 5 06    California           asian_population 6085947 0.154 
 6 08    Colorado             asian_population  199827 0.0346
 7 09    Connecticut          asian_population  172455 0.0478
 8 10    Delaware             asian_population   42699 0.0431
 9 11    District of Columbia asian_population   33545 0.0486
10 12    Florida              asian_population  643682 0.0299
# ℹ 42 more rows
…
Visualizing American Community Survey Data

Once you’ve accessed data using the tidycensus package, you can do whatever you want with it. In this section, you’ll practice analyzing and visualizing survey data using the American Community Survey. This survey, which is conducted every year, differs from the Decennial Census in two major ways: it is given to a sample of people rather than the entire population, and it includes a wider range of questions.

Despite these differences, you can access data from the American Community Survey nearly identically to how you access Decennial Census data. Instead of get_decennial(), you use the get_acs() function, but the arguments you pass to it are the same:

get_acs(
  geography = "state",
  variables = "B01002_001",
  year = 2020
)

This code uses the B01002_001 variable to get median age data from 2020 for each state. Here’s what the output looks like:

# A tibble: 52 × 5
   GEOID NAME                 variable   estimate   moe
   <chr> <chr>                <chr>         <dbl> <dbl>
 1 01    Alabama              B01002_001     39.2   0.1
 2 02    Alaska               B01002_001     34.6   0.2
 3 04    Arizona              B01002_001     37.9   0.2
 4 05    Arkansas             B01002_001     38.3   0.2
 5 06    California           B01002_001     36.7   0.1
 6 08    Colorado             B01002_001     36.9   0.1
 7 09    Connecticut          B01002_001     41.1   0.2
 8 10    Delaware             B01002_001     41     0.2
 9 11    District of Columbia B01002_001     34.1   0.1
10 12    Florida              B01002_001     42.2   0.2
# ℹ 42 more rows
…
