R for the Rest of Us: A Statistics-Free Introduction - 1 An R Programming Crash Course
…
To confirm that the tidyverse package has been installed correctly, click the Packages tab on the bottom-right pane in RStudio. Search for tidyverse, and you should see it pop up.

Now that you’ve installed the tidyverse, you’ll put it to use. Although you need to install packages only once per computer, you need to load them each time you restart RStudio. Return to the sample-code.R file and reimport your data using a function from the tidyverse package (your filepath will look slightly different):

library(tidyverse)

population_data_2 <- read_csv(file = "/Users/davidkeyes/Documents/population-by-state.csv")

At the top of the script, the line library(tidyverse) loads the tidyverse package. Then, the package’s read_csv() function imports the data. Note the underscore (_) in place of the period (.) in the function’s name; this differs from the base R function you used earlier. Using read_csv() to import CSV files achieves the same goal of creating an object, however — in this case, one called population_data_2. Enter population_data_2 in the console, and you should see this output:

population_data_2 <- read_csv(file = "data/population-by-state.csv")

population_data_2

# A tibble: 52 × 9
    rank State       Pop  Growth Pop2018 Pop2010 growthSince2010 Percent density
   <dbl> <chr>     <dbl>   <dbl>   <dbl>   <dbl>           <dbl>   <dbl>   <dbl>
 1     1 Califor… 3.96e7  0.0038  3.95e7  3.73e7          0.0615  0.118     254.
 2     2 Texas    2.97e7  0.0385  2.86e7  2.52e7          0.178   0.0889    114.
 3     3 Florida  2.19e7  0.033   2.12e7  1.88e7          0.164   0.0656    409.
 4     4 New York 1.93e7 -0.0118  1.95e7  1.94e7         -0.0051  0.0577    410.
 5     5 Pennsyl… 1.28e7  0.0003  1.28e7  1.27e7          0.0073  0.0383    286.
 6     6 Illinois 1.26e7 -0.0121  1.27e7  1.28e7         -0.0211  0.0376    226.
 7     7 Ohio     1.17e7  0.0033  1.17e7  1.15e7          0.0152  0.035     287.
 8     8 Georgia  1.08e7  0.0303  1.05e7  9.71e6          0.115   0.0324    188.
 9     9 North C… 1.07e7  0.0308  1.04e7  9.57e6          0.118   0.032     220.
10    10 Michigan 9.99e6  0.0008  9.98e6  9.88e6          0.0116  0.0299    177.
# ℹ 42 more rows
…
