R for the Rest of Us: A Statistics-Free Introduction - 4 Maps and Geospatial Data
…
Figure 4.5: Using MULTILINESTRING data to represent several roads

Finally, you could use MULTIPOLYGON data, for example, to depict a state made up of multiple polygons. The following data represents the 23 counties in the state of Wyoming:

Simple feature collection with 23 features and 1 field
Geometry type: MULTIPOLYGON
Dimension:     XY
Bounding box:  xmin: -111.0546 ymin: 40.99477 xmax: -104.0522 ymax: 45.00582
Geodetic CRS:  WGS 84
# A tibble: 23 × 2
   NAME                                                                 geometry
   <chr>                                                      <MULTIPOLYGON [°]>
 1 Lincoln     (((-110.5417 42.28652, -110.5417 42.28638, -110.5417 42.28471, -…
 2 Fremont     (((-109.3258 42.86878, -109.3258 42.86894, -109.3261 42.86956, -…
 3 Uinta       (((-110.5849 41.57916, -110.5837 41.57916, -110.5796 41.57917, -…
 4 Big Horn    (((-107.5034 44.64004, -107.5029 44.64047, -107.5023 44.64078, -…
 5 Hot Springs (((-108.1563 43.47063, -108.1563 43.45961, -108.1564 43.45961, -…
 6 Washakie    (((-107.6841 44.1664, -107.684 44.1664, -107.684 44.1664, -107.6…
 7 Converse    (((-105.9232 43.49501, -105.9152 43.49503, -105.9072 43.49505, -…
 8 Sweetwater  (((-109.5651 40.99839, -109.5652 40.99839, -109.5656 40.99839, -…
 9 Crook       (((-104.4611 44.18075, -104.4612 44.18075, -104.4643 44.18075, -…
10 Carbon      (((-106.3227 41.38265, -106.3227 41.38245, -106.3227 41.38242, -…
# ℹ 13 more rows
…
Importing the Data

Next, you’ll import the data you need: COVID-19 rates by state over time, state populations, and geospatial information. Madjid imported each of these pieces of data separately and then merged them, and you’ll do the same.

The COVID-19 data comes directly from the New York Times, which publishes daily case rates by state as a CSV file on its GitHub account. To import it, enter the following:

covid_data <- 
  read_csv("https://data.rfortherestofus.com/covid-us-states.csv") %>%
  select(-fips)

Federal Information Processing Standards (FIPS) are numeric codes used to represent states, but you’ll reference states by their names instead, so the line select(-fips) drops the fips variable.

Looking at this data, you can see the arrival of the first COVID-19 cases in the United States in January 2020:

# A tibble: 61,102 × 4
   date       state      cases deaths
   <date>     <chr>      <dbl>  <dbl>
 1 2020-01-21 Washington     1      0
 2 2020-01-22 Washington     1      0
 3 2020-01-23 Washington     1      0
 4 2020-01-24 Illinois       1      0
 5 2020-01-24 Washington     1      0
 6 2020-01-25 California     1      0
 7 2020-01-25 Illinois       1      0
 8 2020-01-25 Washington     1      0
 9 2020-01-26 Arizona        1      0
10 2020-01-26 California     2      0
# ℹ 61,092 more rows

Madjid’s map shows per capita rates (the rates per 100,000 people) rather than absolute rates (the rates without consideration for a state’s population). So, to re-create his maps, you also need to obtain data on each state’s population. Download this data as a CSV as follows:

usa_states <- 
  read_csv("https://data.rfortherestofus.com/population-by-state.csv") %>%
  select(State, Pop)

This code imports the data, keeps the State and Pop (population) variables, and saves the data as an object called usa_states. Here’s what usa_states looks like:

# A tibble: 52 × 2
   State               Pop
   <chr>             <dbl>
 1 California     39613493
 2 Texas          29730311
 3 Florida        21944577
 4 New York       19299981
 5 Pennsylvania   12804123
 6 Illinois       12569321
 7 Ohio           11714618
 8 Georgia        10830007
 9 North Carolina 10701022
10 Michigan        9992427
# ℹ 42 more rows
…
The group_by() function calculates totals for each state, then creates a new variable called pd_cases, which represents the number of cases in the previous day (the lag() function is used to assign data to this variable). Some days don’t have case counts for the previous day, so set this value to 0 using the replace_na() function.

Next, this code creates a new variable called daily_cases. To set the value of this variable, use the case_when() function to create a condition: if the cases variable (which holds the cases on that day) is greater than the pd_cases variable (which holds cases from one day prior), then daily_cases is equal to cases minus pd_cases. Otherwise, you set daily_cases to be equal to 0.

Finally, because you grouped the data by state at the beginning of the code, now you need to remove this grouping using the ungroup() function before arranging the data by state and date.

Here’s the resulting covid_cases data frame:

# A tibble: 61,102 × 6
   date       state   cases deaths pd_cases daily_cases
   <date>     <chr>   <dbl>  <dbl>    <dbl>       <dbl>
 1 2020-03-13 Alabama     6      0        0           6
 2 2020-03-14 Alabama    12      0        6           6
 3 2020-03-15 Alabama    23      0       12          11
 4 2020-03-16 Alabama    29      0       23           6
 5 2020-03-17 Alabama    39      0       29          10
 6 2020-03-18 Alabama    51      0       39          12
 7 2020-03-19 Alabama    78      0       51          27
 8 2020-03-20 Alabama   106      0       78          28
 9 2020-03-21 Alabama   131      0      106          25
10 2020-03-22 Alabama   157      0      131          26
# ℹ 61,092 more rows
…
Rather than keeping raw values (for example, on June 29, 2021, Florida had a rate of 57.77737 cases per 100,000 people), you use the cut() function to convert the values into categories: values of >0 (greater than zero), values of >5 (greater than five), and values of >50 (greater than 50).

The last step is to filter the data so it includes only 2021 data (the only year depicted in Madjid’s map) and then select just the variables (state, date, and incidence_rate) you’ll need to create the map:

Here’s the final covid_cases_rm data frame:

# A tibble: 18,980 × 3
   state   date       incidence_rate
   <chr>   <date>     <fct>         
 1 Alabama 2021-01-01 >50           
 2 Alabama 2021-01-02 >50           
 3 Alabama 2021-01-03 >50           
 4 Alabama 2021-01-04 >50           
 5 Alabama 2021-01-05 >50           
 6 Alabama 2021-01-06 >50           
 7 Alabama 2021-01-07 >50           
 8 Alabama 2021-01-08 >50           
 9 Alabama 2021-01-09 >50           
10 Alabama 2021-01-10 >50           
# ℹ 18,970 more rows
…
