R for the Rest of Us: A Statistics-Free Introduction - 7 Parameterized Reporting
…
The text and charts in the report come from the cases data frame, shown here:

# A tibble: 51 × 4
   total_cases state.name  cases_per_100000 case_rank
   <chr>       <chr>                  <dbl>     <int>
 1 1302945     Alabama                26573        18
 2 246345      Alaska                 33675         2
 3 2025435     Arizona                27827        10
 4 837154      Arkansas               27740        12
 5 9274208     California             23472        36
 6 1388702     Colorado               24115        34
 7 766172      Connecticut            21490        43
 8 264376      Delaware               27150        13
 9 5965411     Florida                27775        11
10 2521664     Georgia                23750        35
# ℹ 41 more rows
…
First, this code filters the cases data frame (which contains data for all states) to keep only the data for the state in params$state. Then, the pull() function gets a single value from that data, and the comma() function from the scales package applies formatting to make state_cases_per_100000 display as 26,573 (rather than 26573). Finally, the state_cases_per_100000 and state_case_rank variables are integrated into the inline R code.

Including Parameters in Visualization Code

The params$state parameter is used in other places as well, such as to highlight a state in the report’s bar chart. To see how to accomplish this, look at the following section from the last code chunk:

cases %>%
  mutate(highlight_state = if_else(state.name == params$state, "Y", "N"))

This code creates a variable called highlight_state. Within the cases data frame, the code checks whether state.name is equal to params$state. If it is, highlight_state gets the value Y. If not, it gets N. Here’s what the relevant columns look like after you run these two lines:

# A tibble: 51 × 2
   state.name  highlight_state
   <chr>       <chr>          
 1 Alabama     Y              
 2 Alaska      N              
 3 Arizona     N              
 4 Arkansas    N              
 5 California  N              
 6 Colorado    N              
 7 Connecticut N              
 8 Delaware    N              
 9 Florida     N              
10 Georgia     N              
# ℹ 41 more rows
…
Rather than use render() with the input and output_file arguments, as you did earlier, you can pass it the params argument to give it parameters to use when knitting. To do so, create a tibble with the information needed to render all 51 reports and save it as an object called reports, which you’ll pass to the render() function, as follows:

reports <- tibble(
  input = "urban-covid-budget-report.Rmd",
  output_file = str_glue("{state}.html"),
  params = map(state, ~ list(state = .))
)

This code generates a tibble with 51 rows and 3 variables. In all rows, the input variable is set to the name of the R Markdown document. The value of output_file is set with str_glue() to be equal to the name of the state, followed by .html (for example, Alabama.html).

The params variable is the most complicated of the three. It is what’s known as a named list. This data structure puts the data in the state: state _name format needed for the R Markdown document’s YAML. The map() function from the purrr package creates the named list, telling R to set the value of each row as state = "Alabama", then state = "Alaska", and so on, for all of the states. You can see these variables in the reports tibble:

# A tibble: 51 × 3
   input                         output_file      params          
   <chr>                         <glue>           <list>          
 1 urban-covid-budget-report.Rmd Alabama.html     <named list [1]>
 2 urban-covid-budget-report.Rmd Alaska.html      <named list [1]>
 3 urban-covid-budget-report.Rmd Arizona.html     <named list [1]>
 4 urban-covid-budget-report.Rmd Arkansas.html    <named list [1]>
 5 urban-covid-budget-report.Rmd California.html  <named list [1]>
 6 urban-covid-budget-report.Rmd Colorado.html    <named list [1]>
 7 urban-covid-budget-report.Rmd Connecticut.html <named list [1]>
 8 urban-covid-budget-report.Rmd Delaware.html    <named list [1]>
 9 urban-covid-budget-report.Rmd Florida.html     <named list [1]>
10 urban-covid-budget-report.Rmd Georgia.html     <named list [1]>
# ℹ 41 more rows
…
