R for the Rest of Us: A Statistics-Free Introduction - 3 Custom Data Visualization Themes
…
Styling a Plot with a Custom Theme

The bbplot package has two functions: bbc_style() and finalise_plot(). The latter deals with tasks like adding the BBC logo and saving plots in the correct dimensions. For now, let’s look at the bbc_style() function, which applies a custom ggplot theme to make all the plots look consistent and follow BBC style guidelines.

An Example Plot

To see how this function works, you’ll create a plot showing population data about several penguin species. You’ll be using the palmerpenguins package, which contains data about penguins living on three islands in Antarctica. For a sense of what this data looks like, load the palmerpenguins and tidyverse packages:

library(palmerpenguins)
library(tidyverse)

Now you have data you can work with in an object called penguins. Here’s what the first 10 rows look like:

# A tibble: 344 × 8
   species island    bill_length_mm bill_depth_mm flipper_length_mm body_mass_g
   <fct>   <fct>              <dbl>         <dbl>             <int>       <int>
 1 Adelie  Torgersen           39.1          18.7               181        3750
 2 Adelie  Torgersen           39.5          17.4               186        3800
 3 Adelie  Torgersen           40.3          18                 195        3250
 4 Adelie  Torgersen           NA            NA                  NA          NA
 5 Adelie  Torgersen           36.7          19.3               193        3450
 6 Adelie  Torgersen           39.3          20.6               190        3650
 7 Adelie  Torgersen           38.9          17.8               181        3625
 8 Adelie  Torgersen           39.2          19.6               195        4675
 9 Adelie  Torgersen           34.1          18.1               193        3475
10 Adelie  Torgersen           42            20.2               190        4250
# ℹ 334 more rows
# ℹ 2 more variables: sex <fct>, year <int>
…
